{
  "project_info": {
    "project_number": "231290131341",
    "firebase_url": "https://sleepingkeeper-default-rtdb.europe-west1.firebasedatabase.app",
    "project_id": "sleepingkeeper",
    "storage_bucket": "sleepingkeeper.appspot.com"
  },
  "client": [
    {
      "client_info": {
        "mobilesdk_app_id": "1:231290131341:android:398c8762fac208496623c4",
        "android_client_info": {
          "package_name": "com.team4games.sleepingkeeper"
        }
      },
      "oauth_client": [
        {
          "client_id": "231290131341-6kvbuc1qvq2jpf8b8qrprkf257buctl6.apps.googleusercontent.com",
          "client_type": 3
        }
      ],
      "api_key": [
        {
          "current_key": "AIzaSyClygQNp56GLEyhAFf6_qmE-LqW06IYaJg"
        }
      ],
      "services": {
        "appinvite_service": {
          "other_platform_oauth_client": [
            {
              "client_id": "231290131341-6kvbuc1qvq2jpf8b8qrprkf257buctl6.apps.googleusercontent.com",
              "client_type": 3
            },
            {
              "client_id": "231290131341-iupp6d1eds0n2amq7oqm1e26c5jt29lu.apps.googleusercontent.com",
              "client_type": 2,
              "ios_info": {
                "bundle_id": "com.team4games.sleepingkeeper"
              }
            }
          ]
        }
      }
    }
  ],
  "configuration_version": "1"
}