%YAML 1.1
%TAG !u! tag:unity3d.com,2011:
--- !u!1 &4864325265361957784
GameObject:
  m_ObjectHideFlags: 0
  m_CorrespondingSourceObject: {fileID: 0}
  m_PrefabInstance: {fileID: 0}
  m_PrefabAsset: {fileID: 0}
  serializedVersion: 6
  m_Component:
  - component: {fileID: 4480879763944883354}
  m_Layer: 0
  m_Name: GhostSpawnVfx
  m_TagString: Untagged
  m_Icon: {fileID: 0}
  m_NavMeshLayer: 0
  m_StaticEditorFlags: 0
  m_IsActive: 1
--- !u!4 &4480879763944883354
Transform:
  m_ObjectHideFlags: 0
  m_CorrespondingSourceObject: {fileID: 0}
  m_PrefabInstance: {fileID: 0}
  m_PrefabAsset: {fileID: 0}
  m_GameObject: {fileID: 4864325265361957784}
  m_LocalRotation: {x: 0, y: 0, z: 0, w: 1}
  m_LocalPosition: {x: 9.015337, y: 2.64, z: 1}
  m_LocalScale: {x: 1, y: 1, z: 1}
  m_Children:
  - {fileID: 6540027848510337970}
  m_Father: {fileID: 0}
  m_RootOrder: 0
  m_LocalEulerAnglesHint: {x: 0, y: 0, z: 0}
--- !u!1001 &6544824441375297778
PrefabInstance:
  m_ObjectHideFlags: 0
  serializedVersion: 2
  m_Modification:
    m_TransformParent: {fileID: 4480879763944883354}
    m_Modifications:
    - target: {fileID: 1632456991457418, guid: aa8d6482d70a23445b4b2a928ed1b845, type: 3}
      propertyPath: m_IsActive
      value: 1
      objectReference: {fileID: 0}
    - target: {fileID: 1761275570023184, guid: aa8d6482d70a23445b4b2a928ed1b845, type: 3}
      propertyPath: m_IsActive
      value: 1
      objectReference: {fileID: 0}
    - target: {fileID: 1965343156803978, guid: aa8d6482d70a23445b4b2a928ed1b845, type: 3}
      propertyPath: m_Name
      value: CFX2_WWExplosion_C (2)
      objectReference: {fileID: 0}
    - target: {fileID: 1965343156803978, guid: aa8d6482d70a23445b4b2a928ed1b845, type: 3}
      propertyPath: m_IsActive
      value: 1
      objectReference: {fileID: 0}
    - target: {fileID: 4467698798578808, guid: aa8d6482d70a23445b4b2a928ed1b845, type: 3}
      propertyPath: m_LocalPosition.y
      value: 0
      objectReference: {fileID: 0}
    - target: {fileID: 4467698798578808, guid: aa8d6482d70a23445b4b2a928ed1b845, type: 3}
      propertyPath: m_LocalPosition.z
      value: 0.44
      objectReference: {fileID: 0}
    - target: {fileID: 4850539349599040, guid: aa8d6482d70a23445b4b2a928ed1b845, type: 3}
      propertyPath: m_RootOrder
      value: 0
      objectReference: {fileID: 0}
    - target: {fileID: 4850539349599040, guid: aa8d6482d70a23445b4b2a928ed1b845, type: 3}
      propertyPath: m_LocalScale.x
      value: 0.6
      objectReference: {fileID: 0}
    - target: {fileID: 4850539349599040, guid: aa8d6482d70a23445b4b2a928ed1b845, type: 3}
      propertyPath: m_LocalScale.y
      value: 0.6
      objectReference: {fileID: 0}
    - target: {fileID: 4850539349599040, guid: aa8d6482d70a23445b4b2a928ed1b845, type: 3}
      propertyPath: m_LocalScale.z
      value: 0.6
      objectReference: {fileID: 0}
    - target: {fileID: 4850539349599040, guid: aa8d6482d70a23445b4b2a928ed1b845, type: 3}
      propertyPath: m_LocalPosition.x
      value: 0
      objectReference: {fileID: 0}
    - target: {fileID: 4850539349599040, guid: aa8d6482d70a23445b4b2a928ed1b845, type: 3}
      propertyPath: m_LocalPosition.y
      value: 0
      objectReference: {fileID: 0}
    - target: {fileID: 4850539349599040, guid: aa8d6482d70a23445b4b2a928ed1b845, type: 3}
      propertyPath: m_LocalPosition.z
      value: 0
      objectReference: {fileID: 0}
    - target: {fileID: 4850539349599040, guid: aa8d6482d70a23445b4b2a928ed1b845, type: 3}
      propertyPath: m_LocalRotation.w
      value: 0.7071068
      objectReference: {fileID: 0}
    - target: {fileID: 4850539349599040, guid: aa8d6482d70a23445b4b2a928ed1b845, type: 3}
      propertyPath: m_LocalRotation.x
      value: 0.7071068
      objectReference: {fileID: 0}
    - target: {fileID: 4850539349599040, guid: aa8d6482d70a23445b4b2a928ed1b845, type: 3}
      propertyPath: m_LocalRotation.y
      value: -0
      objectReference: {fileID: 0}
    - target: {fileID: 4850539349599040, guid: aa8d6482d70a23445b4b2a928ed1b845, type: 3}
      propertyPath: m_LocalRotation.z
      value: -0
      objectReference: {fileID: 0}
    - target: {fileID: 4850539349599040, guid: aa8d6482d70a23445b4b2a928ed1b845, type: 3}
      propertyPath: m_LocalEulerAnglesHint.x
      value: 90
      objectReference: {fileID: 0}
    - target: {fileID: 4850539349599040, guid: aa8d6482d70a23445b4b2a928ed1b845, type: 3}
      propertyPath: m_LocalEulerAnglesHint.y
      value: 0
      objectReference: {fileID: 0}
    - target: {fileID: 4850539349599040, guid: aa8d6482d70a23445b4b2a928ed1b845, type: 3}
      propertyPath: m_LocalEulerAnglesHint.z
      value: 0
      objectReference: {fileID: 0}
    - target: {fileID: 199052425208525562, guid: aa8d6482d70a23445b4b2a928ed1b845, type: 3}
      propertyPath: m_Materials.Array.size
      value: 1
      objectReference: {fileID: 0}
    - target: {fileID: 199089098337496390, guid: aa8d6482d70a23445b4b2a928ed1b845, type: 3}
      propertyPath: m_Materials.Array.size
      value: 1
      objectReference: {fileID: 0}
    - target: {fileID: 199196615872329300, guid: aa8d6482d70a23445b4b2a928ed1b845, type: 3}
      propertyPath: m_Materials.Array.size
      value: 1
      objectReference: {fileID: 0}
    - target: {fileID: 199223780631540688, guid: aa8d6482d70a23445b4b2a928ed1b845, type: 3}
      propertyPath: m_Materials.Array.size
      value: 1
      objectReference: {fileID: 0}
    - target: {fileID: 199299900092994560, guid: aa8d6482d70a23445b4b2a928ed1b845, type: 3}
      propertyPath: m_Materials.Array.size
      value: 1
      objectReference: {fileID: 0}
    - target: {fileID: 199417143692123116, guid: aa8d6482d70a23445b4b2a928ed1b845, type: 3}
      propertyPath: m_Materials.Array.size
      value: 1
      objectReference: {fileID: 0}
    - target: {fileID: 199461566134506078, guid: aa8d6482d70a23445b4b2a928ed1b845, type: 3}
      propertyPath: m_Materials.Array.size
      value: 1
      objectReference: {fileID: 0}
    - target: {fileID: 199476642047008916, guid: aa8d6482d70a23445b4b2a928ed1b845, type: 3}
      propertyPath: m_Materials.Array.size
      value: 1
      objectReference: {fileID: 0}
    - target: {fileID: 199477201491446708, guid: aa8d6482d70a23445b4b2a928ed1b845, type: 3}
      propertyPath: m_Materials.Array.size
      value: 1
      objectReference: {fileID: 0}
    - target: {fileID: 199493674838483424, guid: aa8d6482d70a23445b4b2a928ed1b845, type: 3}
      propertyPath: m_Materials.Array.size
      value: 1
      objectReference: {fileID: 0}
    - target: {fileID: 199607934499159972, guid: aa8d6482d70a23445b4b2a928ed1b845, type: 3}
      propertyPath: m_Materials.Array.size
      value: 1
      objectReference: {fileID: 0}
    - target: {fileID: 199677155078267088, guid: aa8d6482d70a23445b4b2a928ed1b845, type: 3}
      propertyPath: m_Materials.Array.size
      value: 1
      objectReference: {fileID: 0}
    - target: {fileID: 199708479510086706, guid: aa8d6482d70a23445b4b2a928ed1b845, type: 3}
      propertyPath: m_Materials.Array.size
      value: 1
      objectReference: {fileID: 0}
    - target: {fileID: 199736298424435364, guid: aa8d6482d70a23445b4b2a928ed1b845, type: 3}
      propertyPath: m_Materials.Array.size
      value: 1
      objectReference: {fileID: 0}
    - target: {fileID: 199781570499608498, guid: aa8d6482d70a23445b4b2a928ed1b845, type: 3}
      propertyPath: m_Materials.Array.size
      value: 1
      objectReference: {fileID: 0}
    - target: {fileID: 199810448994814536, guid: aa8d6482d70a23445b4b2a928ed1b845, type: 3}
      propertyPath: m_Materials.Array.size
      value: 1
      objectReference: {fileID: 0}
    - target: {fileID: 199912115969706984, guid: aa8d6482d70a23445b4b2a928ed1b845, type: 3}
      propertyPath: m_Materials.Array.size
      value: 1
      objectReference: {fileID: 0}
    - target: {fileID: 199917550294797494, guid: aa8d6482d70a23445b4b2a928ed1b845, type: 3}
      propertyPath: m_Materials.Array.size
      value: 1
      objectReference: {fileID: 0}
    - target: {fileID: 199936228850606128, guid: aa8d6482d70a23445b4b2a928ed1b845, type: 3}
      propertyPath: m_Materials.Array.size
      value: 1
      objectReference: {fileID: 0}
    m_RemovedComponents: []
  m_SourcePrefab: {fileID: 100100000, guid: aa8d6482d70a23445b4b2a928ed1b845, type: 3}
--- !u!4 &6540027848510337970 stripped
Transform:
  m_CorrespondingSourceObject: {fileID: 4850539349599040, guid: aa8d6482d70a23445b4b2a928ed1b845, type: 3}
  m_PrefabInstance: {fileID: 6544824441375297778}
  m_PrefabAsset: {fileID: 0}
